{
  "name": "",
  "css_prefix_text": "icon-",
  "css_use_suffix": false,
  "hinting": true,
  "units_per_em": 1000,
  "ascent": 850,
  "glyphs": [
    {
      "uid": "bb4ffd058b41f897a30d17c865f4482b",
      "css": "arrow",
      "code": 59424,
      "src": "custom_icons",
      "selected": true,
      "svg": {
        "path": "M1231.8 388.9L1032.5 189.7C989.2 146.3 989.2 75.9 1032.5 32.5 1075.9-10.8 1146.3-10.8 1189.7 32.5L1578.6 421.4C1622 464.8 1622 535.2 1578.6 578.6L1189.7 967.4C1146.3 1010.8 1075.9 1010.8 1032.5 967.4 989.2 924.1 989.2 853.7 1032.5 810.3L1231.7 611.1 166.7 611.1C105.3 611.1 55.6 561.4 55.6 500 55.6 438.6 105.3 388.9 166.7 388.9L1231.8 388.9Z",
        "width": 1667
      },
      "search": ["arrow"]
    },
    {
      "uid": "7bf14281af5633a597f85b061ef1cfb9",
      "css": "angle-right",
      "code": 61701,
      "src": "fontawesome"
    },
    {
      "uid": "2344a40405cd74420dd54b4ad4a72003",
      "css": "print",
      "code": 59405,
      "src": "custom_icons",
      "selected": true,
      "svg": {
        "path": "M726.6 301.1A18.8 18.8 0 1 1 726.6 263.6H802.6A51.5 51.5 0 0 1 854 315V364.9A18.8 18.8 0 1 1 816.5 364.9V315A14 14 0 0 0 802.6 301.1H726.6ZM209.3 364.9A18.8 18.8 0 1 1 171.8 364.9V315A51.5 51.5 0 0 1 223.2 263.6H294.6A18.8 18.8 0 1 1 294.6 301.1H223.2A14 14 0 0 0 209.3 315V364.9ZM288 733.8A18.8 18.8 0 0 1 288 771.3H124.9A51.5 51.5 0 0 1 73.5 719.9V407.2A51.5 51.5 0 0 1 124.9 355.8H288A18.8 18.8 0 1 1 288 393.3H124.9A14 14 0 0 0 111 407.2V719.9A14 14 0 0 0 124.9 733.8H288ZM737.8 771.3A18.8 18.8 0 1 1 737.8 733.8H900.9A14 14 0 0 0 914.8 719.9V407.2A14 14 0 0 0 900.9 393.3H737.8A18.8 18.8 0 1 1 737.8 355.8H900.9A51.5 51.5 0 0 1 952.3 407.2V719.9A51.5 51.5 0 0 1 900.9 771.3H737.8ZM324.4 434A18.8 18.8 0 1 1 286.9 434V199.9A51.5 51.5 0 0 1 338.3 148.5H687.5A51.5 51.5 0 0 1 738.9 199.9V433.9A18.8 18.8 0 1 1 701.4 433.9V199.9A14 14 0 0 0 687.5 186H338.3A14 14 0 0 0 324.4 199.9V434ZM701.4 660.4A18.8 18.8 0 1 1 738.9 660.4V825.4A51.5 51.5 0 0 1 687.5 876.8H338.3A51.5 51.5 0 0 1 286.9 825.4V660.4A18.8 18.8 0 1 1 324.4 660.4V825.4A14 14 0 0 0 338.3 839.3H687.5A14 14 0 0 0 701.4 825.4V660.4ZM274.1 680.3A18.8 18.8 0 0 1 274.1 642.8H751.7A18.8 18.8 0 1 1 751.7 680.3H274.1ZM274.1 459.3A18.8 18.8 0 1 1 274.1 421.8H751.7A18.8 18.8 0 0 1 751.7 459.3H274.1ZM380.8 774.8A18.8 18.8 0 0 1 380.8 737.3H645A18.8 18.8 0 0 1 645 774.8H380.8Z",
        "width": 1000
      },
      "search": ["print"]
    },
    {
      "uid": "24675775f0157b11b9d09d139a880aae",
      "css": "facebook",
      "code": 61594,
      "src": "custom_icons",
      "selected": true,
      "svg": {
        "path": "M812.8 150H212.2A37.3 37.3 0 0 0 175 187.3V787.8A37.3 37.3 0 0 0 212.3 825H535.6V564H447.9V461.8H535.6V386.6C535.6 299.4 588.8 252 666.6 252 703.9 252 735.9 254.7 745.2 256V347.1H691.5C649.3 347.1 641 367.2 641 396.7V461.8H742.2L729 564H641.1V825H812.8A37.3 37.3 0 0 0 850 787.8V187.2A37.3 37.3 0 0 0 812.8 150",
        "width": 1000
      },
      "search": ["facebook"]
    },
    {
      "uid": "4e5eb5fffc2df8fa27faa744d7edbd0e",
      "css": "email-2",
      "code": 61664,
      "src": "custom_icons",
      "selected": true,
      "svg": {
        "path": "M122.4 790.4A18.8 18.8 0 1 1 92.8 767.4L337.8 453.1A18.8 18.8 0 1 1 367.4 476.1L122.4 790.4ZM926 767.4A18.8 18.8 0 0 1 896.4 790.4L651.4 476.1A18.8 18.8 0 0 1 681 453.1L926 767.4ZM505.8 540.6L884.9 250.4A18.8 18.8 0 1 1 907.7 280.1L517.1 579.1A18.8 18.8 0 0 1 494.3 579.1L103.8 280.1A18.8 18.8 0 1 1 126.6 250.4L505.8 540.6ZM886.7 775.5A13.9 13.9 0 0 0 900.5 761.6V274.9A13.9 13.9 0 0 0 886.7 261H124.8A13.9 13.9 0 0 0 111 274.9V761.6C111 769.2 117.2 775.5 124.8 775.5H886.7ZM886.7 813H124.8A51.4 51.4 0 0 1 73.5 761.6V274.9C73.5 246.6 96.5 223.5 124.8 223.5H886.7C915 223.5 938 246.6 938 274.9V761.6C938 789.9 915 813 886.7 813Z",
        "width": 1000
      },
      "search": ["email-2"]
    },
    {
      "uid": "b0b8f865ac25130c9f89e18c0f677f3a",
      "css": "twitter",
      "code": 61593,
      "src": "custom_icons",
      "selected": true,
      "svg": {
        "path": "M688 428.7C688.1 432.4 688.1 436.3 688.1 440.3 688.1 559.6 597.3 697.3 431.1 697.3 380.1 697.3 332.6 682.3 293 656.5A181.7 181.7 0 0 0 426.8 619.2 90.2 90.2 0 0 1 342.5 556.4 89.4 89.4 0 0 0 383.3 554.9 90.4 90.4 0 0 1 310.8 466.3V465.2C323 471.9 336.9 476.1 351.7 476.4A90 90 0 0 1 311.4 401.3C311.4 384.8 315.9 369.3 323.6 356A256.2 256.2 0 0 0 509.8 450.4 90.3 90.3 0 0 1 663.6 367.9 183 183 0 0 0 720.9 346 90.1 90.1 0 0 1 681.2 396 182.6 182.6 0 0 0 733.1 381.8 185.4 185.4 0 0 1 688 428.6M499.7 125C292.7 125 125 292.7 125 499.7 125 706.6 292.7 874.3 499.7 874.3 706.6 874.3 874.3 706.6 874.3 499.6 874.3 292.7 706.6 125 499.7 125",
        "width": 1000
      },
      "search": ["twitter"]
    },
    {
      "uid": "73ab2bb109eca5851b56ecc536dbcbb3",
      "css": "enlarge-arrows",
      "code": 59406,
      "src": "custom_icons",
      "selected": true,
      "svg": {
        "path": "M416.4 881.4L416.6 981.4 114.5 981.8 14.5 981.9 14.4 881.8 14.4 881.9 14 579.8 114 579.7 114.3 807.9 405.9 529.2 475 601.5 181.9 881.6 416.4 881.4ZM886.1 420.3L885.8 192 594.1 470.7 525.1 398.5 818.1 118.3 583.6 118.6 583.5 18.6 885.6 18.2 985.6 18.1 985.7 118.1 986 420.2 886.1 420.3Z",
        "width": 1000
      },
      "search": ["enlarge-arrows"]
    },
    {
      "uid": "5211af474d3a9848f67f945e2ccaf143",
      "css": "cancel",
      "code": 59408,
      "src": "fontawesome"
    },
    {
      "uid": "2251c6964995cd39662e427a247bb7cf",
      "css": "pdf",
      "code": 59435,
      "src": "custom_icons",
      "selected": true,
      "svg": {
        "path": "M250 830.3C250 820 258.4 811.6 268.8 811.6 279.1 811.6 287.5 820 287.5 830.3L287.5 898.1C287.5 917.7 295.3 931.3 298.6 931.3L943.8 931.3C947.1 931.3 954.9 917.7 954.9 898.1L954.9 101.9C954.9 82.3 947.1 68.8 943.8 68.8L298.6 68.8C295.3 68.8 287.5 82.3 287.5 101.9L287.5 169.6C287.5 180 279.1 188.4 268.8 188.4 258.4 188.4 250 180 250 169.6L250 101.9C250 64.4 269.1 31.3 298.6 31.3L943.8 31.3C973.3 31.3 992.4 64.4 992.4 101.9L992.4 898.1C992.4 935.6 973.3 968.8 943.8 968.8L298.6 968.8C269.1 968.8 250 935.6 250 898.1L250 830.3ZM85.3 768.7C65.8 768.7 50 752.9 50 733.4L50 279.1C50 259.6 65.8 243.7 85.3 243.7L814.7 243.7C834.2 243.7 850 259.6 850 279.1L850 733.4C850 752.9 834.2 768.7 814.7 768.7L85.3 768.7ZM189.1 502.9L189.1 408.2 238.5 408.2C274.2 408.2 286.5 428 286.5 455.2 286.5 482.4 274.2 502.9 238.9 502.9L189.1 502.9ZM189.1 536.1L238.9 536.1C299 536.1 325 501.8 325 455.2 325 408.8 299.4 375 238.5 375L150 375 150 625 189.1 625 189.1 536.1ZM388.8 408.9L430.9 408.9C484.2 408.9 511.7 441 511.7 499.6 511.7 558.7 484.2 591.1 428.7 591.1L388.8 591.1 388.8 408.9ZM350 625L430.8 625C506.1 625 550 577.8 550 499.6 550 421.9 506.1 375 433.1 375L350 375 350 625ZM731.5 516.5L731.5 483.1 618.6 483.1 618.6 408.2 750 408.2 750 375 575 375 575 625 618.6 625 618.6 516.5 731.5 516.5Z",
        "width": 1000
      },
      "search": ["pdf"]
    },
    {
      "uid": "c2a841c380c6f3a1cc7918684de0131b",
      "css": "doc",
      "code": 59443,
      "src": "custom_icons",
      "selected": true,
      "svg": {
        "path": "M250 830.3C250 820 258.4 811.6 268.8 811.6 279.1 811.6 287.5 820 287.5 830.3L287.5 898.1C287.5 917.7 295.3 931.3 298.6 931.3L943.8 931.3C947.1 931.3 954.9 917.7 954.9 898.1L954.9 101.9C954.9 82.3 947.1 68.8 943.8 68.8L298.6 68.8C295.3 68.8 287.5 82.3 287.5 101.9L287.5 169.6C287.5 180 279.1 188.4 268.8 188.4 258.4 188.4 250 180 250 169.6L250 101.9C250 64.4 269.1 31.3 298.6 31.3L943.8 31.3C973.3 31.3 992.4 64.4 992.4 101.9L992.4 898.1C992.4 935.6 973.3 968.8 943.8 968.8L298.6 968.8C269.1 968.8 250 935.6 250 898.1L250 830.3ZM85.3 768.7C65.8 768.7 50 752.9 50 733.4L50 279.1C50 259.6 65.8 243.7 85.3 243.7L814.7 243.7C834.2 243.7 850 259.6 850 279.1L850 733.4C850 752.9 834.2 768.7 814.7 768.7L85.3 768.7ZM183.9 405.5L220.8 405.5C267.4 405.5 291.5 434.4 291.5 487.2 291.5 540.3 267.4 569.5 218.9 569.5L183.9 569.5 183.9 405.5ZM150 600L220.7 600C286.6 600 325 557.5 325 487.2 325 417.2 286.6 375 222.7 375L150 375 150 600ZM450.2 406.1C487.1 406.1 515.3 433.2 515.3 487.6 515.3 542 487.1 568.9 450.2 568.9 413.2 568.9 384.7 542 384.7 487.6 384.7 433.2 413.2 406.1 450.2 406.1ZM450.2 600C507.7 600 550 557.8 550 487.6 550 417.4 507.7 375 450.2 375 392.4 375 350 417.4 350 487.6 350 557.8 392.4 600 450.2 600ZM718.6 448.8L750 446.5C741.1 401.2 707.4 375 666.1 375 613.4 375 575 417.7 575 487.6 575 557.4 613.4 600 666.1 600 707.4 600 741 573.9 749.8 528.9L718.3 526.6C712.2 554.5 690.9 568.9 666.1 568.9 632.1 568.9 606.5 541.8 606.5 487.6 606.5 433.5 632.1 406.1 666.1 406.1 690.9 406.1 712.5 420.8 718.6 448.8Z",
        "width": 1000
      },
      "search": ["doc"]
    },
    {
      "uid": "953aecc1b838b83e1ce5f61260968433",
      "css": "xls",
      "code": 59442,
      "src": "custom_icons",
      "selected": true,
      "svg": {
        "path": "M250 830.3C250 820 258.4 811.6 268.8 811.6 279.1 811.6 287.5 820 287.5 830.3L287.5 898.1C287.5 917.7 295.3 931.3 298.6 931.3L943.8 931.3C947.1 931.3 954.9 917.7 954.9 898.1L954.9 101.9C954.9 82.3 947.1 68.8 943.8 68.8L298.6 68.8C295.3 68.8 287.5 82.3 287.5 101.9L287.5 169.7C287.5 180 279.1 188.4 268.8 188.4 258.4 188.4 250 180 250 169.7L250 101.9C250 64.4 269.1 31.3 298.6 31.3L943.8 31.3C973.3 31.3 992.4 64.4 992.4 101.9L992.4 898.1C992.4 935.6 973.3 968.8 943.8 968.8L298.6 968.8C269.1 968.8 250 935.6 250 898.1L250 830.3ZM85.3 768.7C65.8 768.7 50 752.9 50 733.4L50 279.1C50 259.6 65.8 243.7 85.3 243.7L814.7 243.7C834.2 243.7 850 259.6 850 279.1L850 733.4C850 752.9 834.2 768.7 814.7 768.7L85.3 768.7ZM261.4 484.3L198.8 387.5 150.7 387.5 234.6 512.5 150 637.5 198.5 637.5 261.4 541.8 263.6 541.8 326.5 637.5 375 637.5 291.7 512.5 374.4 387.5 326.2 387.5 263.6 484.3 261.4 484.3ZM525 637.5L525 604.3 432.2 604.3 432.2 387.5 400 387.5 400 637.5 525 637.5ZM652.5 420C683.5 420 703.5 432.9 707.1 456.5L747.5 456.5C745.7 415.6 707.8 387.5 653.3 387.5 599.1 387.5 557.7 414.6 557.7 455.4 557.7 489.2 586.4 509.8 629.9 521.2L654.4 527.5C692.8 537.8 709.3 547.2 709.3 566.7 709.3 588.9 685.9 604.9 651 604.9 619.7 604.9 594.4 592.1 592.3 565.8L550 565.8C552.2 611.3 593.9 637.5 651 637.5 712.5 637.5 750 608.4 750 566.6 750 531.2 723.4 510.9 672 497.4L650.8 491.9C616.8 483 598.6 473.1 598.6 454.9 598.6 434.4 620.4 420 652.5 420Z",
        "width": 1000
      },
      "search": ["xls"]
    },
    {
      "uid": "3e3f63c4e82f968f0f24c5108d595586",
      "css": "menu-x",
      "code": 59470,
      "src": "custom_icons",
      "selected": true,
      "svg": {
        "path": "M500 434.5L712.1 222.3A37.5 37.5 0 1 1 765.2 275.4L553 487.5 765.2 699.6A37.5 37.5 0 1 1 712.1 752.7L500 540.5 287.9 752.7A37.5 37.5 0 1 1 234.8 699.6L447 487.5 234.8 275.4A37.5 37.5 0 1 1 287.9 222.3L500 434.5Z",
        "width": 1000
      },
      "search": ["menu-x"]
    },
    {
      "uid": "7fe884258e9f32fbdb1404156001835e",
      "css": "map-pin-plus",
      "code": 59472,
      "src": "custom_icons",
      "selected": true,
      "svg": {
        "path": "M588.5 326.5H672.3A17.8 17.8 0 0 1 690 344.3V445.7A17.8 17.8 0 0 1 672.3 463.5H588.5V547.3A17.8 17.8 0 0 1 570.8 565H469.3A17.8 17.8 0 0 1 451.5 547.3V463.5H367.8A17.8 17.8 0 0 1 350 445.7V344.3A17.8 17.8 0 0 1 367.8 326.5H451.5V242.8A17.8 17.8 0 0 1 469.3 225H570.8A17.8 17.8 0 0 1 588.5 242.8V326.5ZM570.8 362A17.8 17.8 0 0 1 553 344.3V260.5H487V344.3A17.8 17.8 0 0 1 469.2 362H385.5V428H469.2A17.8 17.8 0 0 1 487 445.8V529.5H553V445.8A17.8 17.8 0 0 1 570.8 428H654.5V362H570.8ZM520.9 939.8A1556.3 1556.3 0 0 0 679 775.5C759.3 678.4 816 583 839 494.7 846.3 466.6 850 439.5 850 413.6 850 379.1 844.6 345.3 834.1 313 804.5 222.3 735.7 148.1 646.9 110.9A334.1 334.1 0 0 0 517.5 85C334.1 85 185 232.5 185 413.6 185 439.5 188.7 466.6 196.1 494.7 219 583 275.7 678.4 356 775.5A1556.3 1556.3 0 0 0 517.5 942.8L520.9 939.8ZM506.3 979.4A746.7 746.7 0 0 1 490.8 965.9 1590.8 1590.8 0 0 1 329 797.8C245.8 697.1 186.7 597.6 162.2 503.5 154.2 472.6 150 442.6 150 413.6 150 213.1 314.9 50 517.5 50 567.1 50 615.5 59.8 660.4 78.6 758.6 119.8 834.6 201.7 867.4 302.2 879 337.9 885 375.4 885 413.6 885 442.6 880.9 472.6 872.8 503.5 848.3 597.6 789.2 697.1 706 797.8A1590.8 1590.8 0 0 1 544.2 965.9C536.9 972.4 531.6 977 528.8 979.4A17.5 17.5 0 0 1 506.2 979.4ZM544.3 795.3A1675.5 1675.5 0 0 0 619.2 712.6 1047.5 1047.5 0 0 0 667.3 651.4C684.9 627 699 604.6 708.8 584.8A17.5 17.5 0 0 1 740.2 600.4C729.4 622.1 714.3 646.1 695.7 671.9A1081.8 1081.8 0 0 1 645.9 735.1 1709.8 1709.8 0 0 1 569.4 819.6 1709.6 1709.6 0 0 1 534.6 854.7 17.5 17.5 0 0 1 522.4 859.6H519.6A17.5 17.5 0 0 1 507.5 854.7 1709.8 1709.8 0 0 1 472.6 819.6 1710 1710 0 0 1 396.1 735.1 1082 1082 0 0 1 346.4 671.9C327.7 646 312.7 622.1 301.9 600.3A17.5 17.5 0 1 1 333.2 584.7C343.1 604.6 357.1 627 374.7 651.4 388.8 670.9 405 691.4 422.9 712.6A1675.6 1675.6 0 0 0 497.8 795.3C506.2 804 514 811.9 521 818.9 528.1 811.9 535.9 804 544.3 795.3Z",
        "width": 1000
      },
      "search": ["map-pin-plus"]
    },
    {
      "uid": "b08766f5af36a0f3b2a3886b779b196e",
      "css": "info",
      "code": 59481,
      "src": "custom_icons",
      "selected": true,
      "svg": {
        "path": "M506.3 887.5C295.7 887.5 125 716.8 125 506.3S295.7 125 506.3 125 887.5 295.7 887.5 506.3 716.8 887.5 506.3 887.5ZM506.3 850C696.1 850 850 696.1 850 506.3S696.1 162.5 506.3 162.5 162.5 316.4 162.5 506.3 316.4 850 506.3 850ZM510.5 391H510C492.5 391 467 380.5 467 353.5 467 337 478.5 316.5 511.5 316.5 531 316.5 553.5 329.5 553.5 353 553.5 377 531.5 391 510.5 391ZM473 593V507.5C473 481 472 475 452 473 438.5 471.5 435 471 435 464 435 455.5 441.5 454.5 455 453 482.5 450 508 438 529 425 537.5 419.5 539.5 418 543 418 547.5 418 548.5 421.5 548.5 428.5 548.5 434.5 548 441.5 548 450V598.5C548 621 549 630.5 569 634 577 635.5 583 636.5 583 643.5 583 651 576.5 651.5 573 651.5 559.5 651.5 535.5 650 514 650 471.5 650 458.5 651.5 443.5 651.5 440 651.5 432.5 651.5 432.5 643.5 432.5 635 440 634.5 448.5 633.5 473 631.5 473 623 473 593Z",
        "width": 1000
      },
      "search": ["info"]
    },
    {
      "uid": "e15f0d620a7897e2035c18c80142f6d9",
      "css": "link-ext",
      "code": 61582,
      "src": "fontawesome"
    },
    {
      "uid": "da6769d083a6a9c983ab0a41220231ec",
      "css": "info-full",
      "code": 59475,
      "src": "custom_icons",
      "selected": true,
      "svg": {
        "path": "M506.3 887.5C295.7 887.5 125 716.8 125 506.3 125 295.7 295.7 125 506.3 125 716.8 125 887.5 295.7 887.5 506.3 887.5 716.8 716.8 887.5 506.3 887.5ZM510.5 391C531.5 391 553.5 377 553.5 353 553.5 329.5 531 316.5 511.5 316.5 478.5 316.5 467 337 467 353.5 467 380.5 492.5 391 510 391L510.5 391ZM473 593C473 623 473 631.5 448.5 633.5 440 634.5 432.5 635 432.5 643.5 432.5 651.5 440 651.5 443.5 651.5 458.5 651.5 471.5 650 514 650 535.5 650 559.5 651.5 573 651.5 576.5 651.5 583 651 583 643.5 583 636.5 577 635.5 569 634 549 630.5 548 621 548 598.5L548 450C548 441.5 548.5 434.5 548.5 428.5 548.5 421.5 547.5 418 543 418 539.5 418 537.5 419.5 529 425 508 438 482.5 450 455 453 441.5 454.5 435 455.5 435 464 435 471 438.5 471.5 452 473 472 475 473 481 473 507.5L473 593Z",
        "width": 1000
      },
      "search": ["info-full"]
    },
    {
      "uid": "f27705d705228f1df170d340541464bd",
      "css": "phone",
      "code": 59478,
      "src": "custom_icons",
      "selected": true,
      "svg": {
        "path": "M350 87.5C315.5 87.5 287.5 115.5 287.5 150L287.5 850C287.5 884.5 315.5 912.5 350 912.5L625 912.5C659.5 912.5 687.5 884.5 687.5 850L687.5 150C687.5 115.5 659.5 87.5 625 87.5L350 87.5ZM325 187.5L650 187.5C670.7 187.5 687.5 204.3 687.5 225L687.5 725C687.5 745.7 670.7 762.5 650 762.5L325 762.5C304.3 762.5 287.5 745.7 287.5 725L287.5 225C287.5 204.3 304.3 187.5 325 187.5Z",
        "width": 1000
      },
      "search": ["phone"]
    },
    {
      "uid": "5a78e7547b4c5900f2391ec1acdd6563",
      "css": "search",
      "code": 59480,
      "src": "custom_icons",
      "selected": true,
      "svg": {
        "path": "M682.2 723.5A18.8 18.8 0 1 1 708.7 697L870 858.3C873.2 861.6 879.1 867.1 886.6 872.5 896.2 879.5 905.4 884.1 912.9 885.2 918.8 886.2 922.8 885 926.6 881.2 930.5 877.4 931.6 873.3 930.7 867.3 929.5 859.8 924.9 850.5 918 840.9 912.6 833.4 907.2 827.4 903.5 823.9L742.7 663.1A18.8 18.8 0 1 1 769.2 636.6L929.7 797.1C934.6 801.8 941.5 809.4 948.5 819 958.5 833 965.4 847.1 967.7 861.4 970.5 878.7 965.9 895 953.1 907.7 940.4 920.4 924.3 924.9 907.1 922.3 892.7 920 878.6 913 864.6 902.8A160.3 160.3 0 0 1 843.1 884.3L682.2 723.5ZM687.4 449A18.8 18.8 0 1 1 724.9 449C724.9 601.1 601.1 724.9 449 724.9 296.9 724.9 173.1 601.2 173.1 449 173.1 296.9 296.9 173.1 449 173.1A18.8 18.8 0 0 1 449 210.6C317.6 210.6 210.6 317.6 210.6 449 210.6 580.5 317.6 687.4 449 687.4 580.4 687.4 687.4 580.5 687.4 449ZM449 788.3C636 788.3 788.3 636 788.3 449 788.3 262 636 109.8 449 109.8S109.7 262 109.7 449C109.7 636 261.9 788.3 449 788.3ZM449 825.8C241.3 825.8 72.3 656.8 72.3 449S241.3 72.3 449 72.3 825.8 241.3 825.8 449 656.8 825.8 449 825.8Z",
        "width": 1000
      },
      "search": ["icon-search"]
    },
    {
      "uid": "267a649f0c67da17da12ab9f7307cfb3",
      "css": "check",
      "code": 59482,
      "src": "custom_icons",
      "selected": true,
      "svg": {
        "path": "M651.1 373.1L738.3 286A37.5 37.5 0 0 1 791.3 339L704.2 426.1 651.1 479.2 439 691.3A37.5 37.5 0 0 1 386 638.3L598.1 426.1 651.1 373.1ZM375.3 597.3L428.3 650.3A37.5 37.5 0 0 1 375.2 703.3L322.2 650.3 251.5 579.6A37.5 37.5 0 1 1 304.5 526.5L375.2 597.2Z",
        "width": 1000
      },
      "search": ["check"]
    },
    {
      "uid": "e4dde1992f787163e2e2b534b8c8067d",
      "css": "angle-down",
      "code": 61703,
      "src": "fontawesome"
    },
    {
      "uid": "4b845016620dad7139da126d52d09b3c",
      "css": "pointer",
      "code": 59484,
      "src": "custom_icons",
      "selected": true,
      "svg": {
        "path": "M395.7 710.5L417.8 531.3H236.6A37.5 37.5 0 0 1 246.6 470.1L698.2 259.6C701.4 258.1 704.8 257.1 708.1 256.5A37.5 37.5 0 0 1 755.8 314L453.5 716.3A37.5 37.5 0 0 1 395.7 710.5Z",
        "width": 1000
      },
      "search": ["pointer"]
    },
    {
      "uid": "e88fb46d574f83109ca551afcba0eefc",
      "css": "listview",
      "code": 59486,
      "src": "custom_icons",
      "selected": true,
      "svg": {
        "path": "M117.6 24.5C174.5 24.5 220.6 70.6 220.6 127.5 220.6 184.3 174.5 230.4 117.6 230.4 60.8 230.4 14.7 184.3 14.7 127.5 14.7 70.6 60.8 24.5 117.6 24.5ZM382.4 24.5L941.2 24.5C998 24.5 1044.1 70.6 1044.1 127.5 1044.1 184.3 998 230.4 941.2 230.4L382.4 230.4C325.5 230.4 279.4 184.3 279.4 127.5 279.4 70.6 325.5 24.5 382.4 24.5ZM117.6 406.9C174.5 406.9 220.6 453 220.6 509.8 220.6 566.7 174.5 612.7 117.6 612.7 60.8 612.7 14.7 566.7 14.7 509.8 14.7 453 60.8 406.9 117.6 406.9ZM382.4 406.9L941.2 406.9C998 406.9 1044.1 453 1044.1 509.8 1044.1 566.7 998 612.7 941.2 612.7L382.4 612.7C325.5 612.7 279.4 566.7 279.4 509.8 279.4 453 325.5 406.9 382.4 406.9ZM117.6 789.2C174.5 789.2 220.6 835.3 220.6 892.2 220.6 949 174.5 995.1 117.6 995.1 60.8 995.1 14.7 949 14.7 892.2 14.7 835.3 60.8 789.2 117.6 789.2ZM382.4 789.2L941.2 789.2C998 789.2 1044.1 835.3 1044.1 892.2 1044.1 949 998 995.1 941.2 995.1L382.4 995.1C325.5 995.1 279.4 949 279.4 892.2 279.4 835.3 325.5 789.2 382.4 789.2Z",
        "width": 1059
      },
      "search": ["listview"]
    },
    {
      "uid": "e8ce107becff0d10fbbb95c0f57c24ce",
      "css": "blockview",
      "code": 59487,
      "src": "custom_icons",
      "selected": true,
      "svg": {
        "path": "M69.4 23.1L421.3 23.1C452 23.1 476.9 48 476.9 78.7L476.9 430.6C476.9 461.2 452 486.1 421.3 486.1L69.4 486.1C38.8 486.1 13.9 461.2 13.9 430.6L13.9 78.7C13.9 48 38.8 23.1 69.4 23.1ZM69.4 532.4L421.3 532.4C452 532.4 476.9 557.3 476.9 588L476.9 939.8C476.9 970.5 452 995.4 421.3 995.4L69.4 995.4C38.8 995.4 13.9 970.5 13.9 939.8L13.9 588C13.9 557.3 38.8 532.4 69.4 532.4ZM578.7 23.1L930.6 23.1C961.2 23.1 986.1 48 986.1 78.7L986.1 430.6C986.1 461.2 961.2 486.1 930.6 486.1L578.7 486.1C548 486.1 523.1 461.2 523.1 430.6L523.1 78.7C523.1 48 548 23.1 578.7 23.1ZM578.7 532.4L930.6 532.4C961.2 532.4 986.1 557.3 986.1 588L986.1 939.8C986.1 970.5 961.2 995.4 930.6 995.4L578.7 995.4C548 995.4 523.1 970.5 523.1 939.8L523.1 588C523.1 557.3 548 532.4 578.7 532.4Z",
        "width": 1000
      },
      "search": ["blockview"]
    },
    {
      "uid": "68af35472e05d6cd11a0c759e6cec436",
      "css": "ppt",
      "code": 59441,
      "src": "custom_icons",
      "selected": true,
      "svg": {
        "path": "M250 830.3A18.8 18.8 0 1 1 287.5 830.3V898.1C287.5 917.7 295.3 931.3 298.6 931.3H943.8C947.1 931.3 954.9 917.7 954.9 898.1V101.9C954.9 82.3 947.1 68.8 943.8 68.8H298.6C295.3 68.8 287.5 82.3 287.5 101.9V169.6A18.8 18.8 0 0 1 250 169.6V101.9C250 64.4 269.1 31.3 298.6 31.3H943.8C973.3 31.3 992.4 64.3 992.4 101.9V898.1C992.4 935.6 973.3 968.8 943.8 968.8H298.6C269.1 968.8 250 935.6 250 898.1V830.3ZM85.3 762.5C65.8 762.5 50 746.7 50 727.2V272.8C50 253.3 65.8 237.5 85.3 237.5H814.7C834.2 237.5 850 253.3 850 272.8V727.2C850 746.7 834.2 762.5 814.7 762.5H85.3ZM323.4 456.9C323.4 483 314.9 503 297.8 516.9 280.7 530.8 256.4 537.8 224.8 537.8H198.8V631.3H158V381.4H230C261.2 381.4 284.6 387.8 300.1 400.5 315.7 413.3 323.4 432.1 323.4 456.9ZM198.8 503.4H220.5C241.5 503.4 256.9 499.8 266.7 492.5 276.5 485.2 281.4 473.8 281.4 458.3 281.4 443.9 277 433.2 268.2 426.1 259.4 419.1 245.8 415.6 227.2 415.6H198.8V503.4ZM538.7 456.9C538.7 483 530.2 503 513.1 516.9 496 530.8 471.7 537.8 440.1 537.8H414.1V631.3H373.3V381.4H445.3C476.5 381.4 499.9 387.8 515.4 400.5 531 413.3 538.7 432.1 538.7 456.9ZM414.1 503.4H435.9C456.8 503.4 472.2 499.8 482 492.5 491.8 485.2 496.7 473.8 496.7 458.3 496.7 443.9 492.3 433.2 483.5 426.1 474.8 419.1 461.1 415.6 442.5 415.6H414.1V503.4ZM674.9 631.3H634.1V416.4H560.6V381.4H748.4V416.4H674.9V631.3Z",
        "width": 1000
      },
      "search": ["ppt"]
    },
    {
      "uid": "97162081fd047901efaae8228970f022",
      "css": "pil",
      "code": 59445,
      "src": "custom_icons",
      "selected": false,
      "svg": {
        "path": "M500 950A450 450 0 1 0 500 50 450 450 0 0 0 500 950ZM500 1000C223.9 1000 0 776.1 0 500S223.9 0 500 0 1000 223.9 1000 500 776.1 1000 500 1000ZM514.3 577.8H277.8A77.8 77.8 0 0 1 277.8 422.2H514.3V313.8C514.3 287.8 535.8 266.7 562.3 266.7 575 266.7 587.3 271.6 596.3 280.4L785.9 466.7A46.5 46.5 0 0 1 785.9 533.4L596.2 719.5A48.6 48.6 0 0 1 528.3 719.5 46.7 46.7 0 0 1 514.3 686.2V577.8Z",
        "width": 1000
      },
      "search": ["pil"]
    },
    {
      "uid": "92797aa75ccadd4ee92f3128cd56b0b1",
      "css": "facebook",
      "code": 59402,
      "src": "custom_icons",
      "selected": false,
      "svg": {
        "path": "M652 976.5C853.8 912.1 1000 723.1 1000 500 1000 223.9 776.1 0 500 0 223.9 0 0 223.9 0 500 0 776.1 223.9 1000 500 1000 503.7 1000 507.4 1000 511.1 999.9L511.1 684.5 393.7 684.5 393.7 548.2 511.1 548.2 511.1 447.9C511.1 331.4 582.5 267.9 686.5 267.9 736.3 267.9 779.1 271.5 791.5 273.4L791.5 394.9 719.2 394.9C662.6 394.9 652 422.1 652 461.2L652 548.2 786.9 548.2 768.9 684.5 652 684.5 652 976.5Z",
        "width": 1000
      },
      "search": ["facebook"]
    },
    {
      "uid": "c9cb845fcf152462e1d17888d97c14e7",
      "css": "arrow-rigt-ext-circle",
      "code": 59401,
      "src": "custom_icons",
      "selected": false,
      "svg": {
        "path": "M891.1 488.4A42.9 42.9 0 1 1 976.9 488.4C976.9 747.1 767.1 956.9 508.4 956.9S40 747.1 40 488.4 249.7 20 508.4 20A42.9 42.9 0 1 1 508.4 105.8C297.1 105.8 125.8 277.1 125.8 488.4 125.8 699.7 297.1 871.1 508.4 871.1 719.7 871.1 891.1 699.7 891.1 488.4ZM720 31.5L986.6-1.3A4 4 0 0 1 991 3.2L958.3 269.8A10 10 0 0 1 941.3 275.6L714.2 48.5A10 10 0 0 1 720 31.5ZM837 82.1A50 50 0 0 1 907.7 152.8L557.6 502.9A50 50 0 1 1 486.9 432.2L837 82.1Z",
        "width": 1000
      },
      "search": ["arrow-rigt-ext-circle"]
    },
    {
      "uid": "534f2b66c1a10b59759e2925e3ae19aa",
      "css": "image",
      "code": 59440,
      "src": "custom_icons",
      "selected": false,
      "svg": {
        "path": "M738.1 0H166.7A166.7 166.7 0 0 0 0 166.7V309.5H0V785.7H0V833.3A166.7 166.7 0 0 0 166.7 1000H738.1A166.7 166.7 0 0 0 904.8 833.3V166.7A166.7 166.7 0 0 0 738.1 0ZM857.1 833.3A119 119 0 0 1 738.1 952.4H166.7A119 119 0 0 1 47.6 833.3V785.7H47.6V309.5H47.6V166.7A119 119 0 0 1 166.7 47.6H738.1A119 119 0 0 1 857.1 166.7ZM594.3 452.9A163.3 163.3 0 1 0 431.4 289.5 163.8 163.8 0 0 0 594.3 452.9ZM649.5 578.6L448.6 686.7 272.4 353.3 112.9 833.8A37.6 37.6 0 0 0 148.6 881.4H751.4A34.8 34.8 0 0 0 782.4 830.5Z",
        "width": 905
      },
      "search": ["image"]
    },
    {
      "uid": "e690ad620027ef674ff090dc3bacd663",
      "css": "pdf",
      "code": 59435,
      "src": "custom_icons",
      "selected": false,
      "svg": {
        "path": "M202.9 537.6A32.9 32.9 0 0 0 216.2 530 34.3 34.3 0 0 0 223.8 518.1 41.9 41.9 0 0 0 223.8 502.4 38.1 38.1 0 0 0 223.8 487.1 37.1 37.1 0 0 0 216.2 476.2 27.6 27.6 0 0 0 202.9 469 51.9 51.9 0 0 0 184.8 466.7H155.7V540.5H184.8A66.7 66.7 0 0 0 202.9 537.6ZM448.6 571.4A110.5 110.5 0 0 0 448.6 510.5 75.2 75.2 0 0 0 435.7 487.6 61 61 0 0 0 415.2 473.3 71.4 71.4 0 0 0 387.6 468.1H347.6V613.8H387.6A71.4 71.4 0 0 0 415.2 608.6 61 61 0 0 0 435.7 594.3 75.2 75.2 0 0 0 448.6 571.4ZM857.1 0H285.7A166.7 166.7 0 0 0 119 166.7V309.5H0V785.7H119V833.3A166.7 166.7 0 0 0 285.7 1000H857.1A166.7 166.7 0 0 0 1023.8 833.3V166.7A166.7 166.7 0 0 0 857.1 0ZM155.7 642.9H117.1V436.2H184.8A129.5 129.5 0 0 1 220.5 441 75.2 75.2 0 0 1 245.7 454.8 53.3 53.3 0 0 1 260 475.7 68.1 68.1 0 0 1 264.8 502.4 70.5 70.5 0 0 1 260 529.5 53.3 53.3 0 0 1 244.8 551 66.7 66.7 0 0 1 220 565.2 112.9 112.9 0 0 1 184.8 570H155.7ZM976.2 833.3A119 119 0 0 1 857.1 952.4H285.7A119 119 0 0 1 166.7 833.3V785.7H809.5V309.5H166.7V166.7A119 119 0 0 1 285.7 47.6H857.1A119 119 0 0 1 976.2 166.7ZM309.5 642.9V436.2H387.6A122.4 122.4 0 0 1 430.5 443.8 98.1 98.1 0 0 1 463.3 465.2 91.4 91.4 0 0 1 484.8 498.1 105.2 105.2 0 0 1 492.4 539.5 109.5 109.5 0 0 1 484.8 581.4 95.2 95.2 0 0 1 463.3 613.8 85.7 85.7 0 0 1 430.5 635.2 112.4 112.4 0 0 1 387.6 642.9ZM653.3 528.1V558.6H575.7V642.9H536.7V436.2H666.7V466.7H575.7V528.1Z",
        "width": 1024
      },
      "search": ["pdf"]
    },
    {
      "uid": "f76ea6d99e015d2ed217450a0da4d457",
      "css": "other",
      "code": 59434,
      "src": "custom_icons",
      "selected": false,
      "svg": {
        "path": "M857.1 0H285.7A166.7 166.7 0 0 0 119 166.7V309.5H0V785.7H119V833.3A166.7 166.7 0 0 0 285.7 1000H857.1A166.7 166.7 0 0 0 1023.8 833.3V166.7A166.7 166.7 0 0 0 857.1 0ZM976.2 833.3A119 119 0 0 1 857.1 952.4H285.7A119 119 0 0 1 166.7 833.3V785.7H610V309.5H166.7V166.7A119 119 0 0 1 285.7 47.6H857.1A119 119 0 0 1 976.2 166.7ZM169.5 626.7A32.4 32.4 0 0 1 177.6 603.3 35.2 35.2 0 0 1 202.4 595.2 34.3 34.3 0 0 1 226.2 603.3 36.2 36.2 0 0 1 226.2 651 32.4 32.4 0 0 1 202.4 659.5 32.9 32.9 0 0 1 178.1 651 30 30 0 0 1 169.5 626.7ZM278.1 626.7A30.5 30.5 0 0 1 285.7 603.3 35.2 35.2 0 0 1 310.5 595.2 34.3 34.3 0 0 1 334.3 603.3 36.2 36.2 0 0 1 334.3 651 32.4 32.4 0 0 1 310.5 659.5 32.9 32.9 0 0 1 285.7 650 30 30 0 0 1 278.1 626.7ZM386.7 626.7A32.4 32.4 0 0 1 394.8 603.3 40.5 40.5 0 0 1 442.4 603.3 36.7 36.7 0 0 1 442.4 651 31.9 31.9 0 0 1 418.6 659.5 32.4 32.4 0 0 1 394.8 651 30 30 0 0 1 386.7 626.7Z",
        "width": 1024
      },
      "search": ["other"]
    },
    {
      "uid": "69aaa8964bbd5867b1cf8b7268dff63f",
      "css": "ppt",
      "code": 59441,
      "src": "custom_icons",
      "selected": false,
      "svg": {
        "path": "M204.3 541.4A36.2 36.2 0 0 0 217.6 533.8 34.3 34.3 0 0 0 225.2 523.8 41.9 41.9 0 0 0 225.2 508.1 39.5 39.5 0 0 0 225.2 492.9 37.1 37.1 0 0 0 217.6 481.4 43.8 43.8 0 0 0 204.3 474.3 66.7 66.7 0 0 0 186.2 471.9H157.1V546.2H186.2A51.4 51.4 0 0 0 204.3 541.4ZM857.1 0H285.7A166.7 166.7 0 0 0 119 166.7V309.5H0V785.7H119V833.3A166.7 166.7 0 0 0 285.7 1000H857.1A166.7 166.7 0 0 0 1023.8 833.3V166.7A166.7 166.7 0 0 0 857.1 0ZM157.1 646.7H118.6V440H186.2A112.9 112.9 0 0 1 221.9 445.2 67.1 67.1 0 0 1 247.1 458.6 53.3 53.3 0 0 1 261.4 479.5 70 70 0 0 1 266.2 506.2 74.8 74.8 0 0 1 261.4 533.8 61 61 0 0 1 246.2 555.2 72.9 72.9 0 0 1 221.4 569 111.9 111.9 0 0 1 186.2 574.3H157.1ZM976.2 833.3A119 119 0 0 1 857.1 952.4H285.7A119 119 0 0 1 166.7 833.3V785.7H778.1V309.5H166.7V166.7A119 119 0 0 1 285.7 47.6H857.1A119 119 0 0 1 976.2 166.7ZM297.1 646.7V440H364.8A112.9 112.9 0 0 1 400.5 445.2 67.1 67.1 0 0 1 425.7 458.6 53.3 53.3 0 0 1 440 479.5 70 70 0 0 1 444.8 506.2 74.8 74.8 0 0 1 440 533.8 61 61 0 0 1 424.8 555.2 72.9 72.9 0 0 1 400 571.4 111.9 111.9 0 0 1 364.8 576.7H335.7V649ZM457.1 471.9V440H619V471.9H557.1V646.7H518.6V471.9ZM381 541.4A36.2 36.2 0 0 0 394.3 533.8 34.3 34.3 0 0 0 403.8 523.8 41.9 41.9 0 0 0 403.8 508.1 39.5 39.5 0 0 0 403.8 492.9 37.1 37.1 0 0 0 396.2 481.4 43.8 43.8 0 0 0 381 472.4 66.7 66.7 0 0 0 362.9 470H335.7V544.3H364.8A51.4 51.4 0 0 0 381 541.4Z",
        "width": 1024
      },
      "search": ["ppt"]
    },
    {
      "uid": "f8e434ccf7d651e82fa1432bbb13d09d",
      "css": "xls",
      "code": 59442,
      "src": "custom_icons",
      "selected": false,
      "svg": {
        "path": "M857.1 0H285.7A166.7 166.7 0 0 0 119 166.7V309.5H0V785.7H119V833.3A166.7 166.7 0 0 0 285.7 1000H857.1A166.7 166.7 0 0 0 1023.8 833.3V166.7A166.7 166.7 0 0 0 857.1 0ZM142.9 439H181.4L187.1 439 190.5 443.3 238.1 519.5 238.1 515.7A26.7 26.7 0 0 0 238.1 511.9L281 444.3A9.5 9.5 0 0 1 289 439H325.7L260.5 537.6 328.6 645.7H290.5A8.1 8.1 0 0 1 285.7 643.3S282.9 640.5 281.4 639L233.8 560 233.8 562.9 233.8 565.7 186.2 639 182.4 643.3A8.6 8.6 0 0 1 176.7 645.7H138.1L206.7 539ZM976.2 833.3A119 119 0 0 1 857.1 952.4H285.7A119 119 0 0 1 166.7 833.3V785.7H778.1V309.5H166.7V166.7A119 119 0 0 1 285.7 47.6H857.1A119 119 0 0 1 976.2 166.7ZM472.4 613.8V645.7H351.4V439H389.5V613.8ZM582.9 571.4A40 40 0 0 0 571.9 562.9 63.3 63.3 0 0 0 556.7 557.1L539 551.9A131 131 0 0 1 521.9 544.8 47.6 47.6 0 0 1 506.7 534.3 47.6 47.6 0 0 1 495.7 518.6 61 61 0 0 1 491.4 494.8 52.4 52.4 0 0 1 496.2 472.4 56.2 56.2 0 0 1 509 453.3 67.6 67.6 0 0 1 530.5 440.5 78.1 78.1 0 0 1 559 435.2 95.2 95.2 0 0 1 592.9 441 69.5 69.5 0 0 1 619 457.1L609.5 475.2A10.5 10.5 0 0 1 606.2 479.5 9.5 9.5 0 0 1 601 479.5 12.9 12.9 0 0 1 594.8 477.1L586.2 472.4 574.8 467.1A47.6 47.6 0 0 0 559.5 467.1 40.5 40.5 0 0 0 545.7 467.1 33.3 33.3 0 0 0 535.7 472.4 24.8 24.8 0 0 0 529.5 480.5 25.7 25.7 0 0 0 529.5 491 20 20 0 0 0 533.3 503.3 38.6 38.6 0 0 0 544.3 511.4L559.5 517.6 577.1 523.3 594.8 530.5A66.7 66.7 0 0 1 610 541 43.3 43.3 0 0 1 620.5 556.2 47.6 47.6 0 0 1 624.8 578.1 69 69 0 0 1 620 604.3 71.9 71.9 0 0 1 606.2 625.7 77.6 77.6 0 0 1 583.3 640 98.6 98.6 0 0 1 535.7 642.9 76.2 76.2 0 0 1 517.1 637.6 87.1 87.1 0 0 1 501 629 65.2 65.2 0 0 1 487.1 617.6L498.1 599.5 501.9 596.2A9.5 9.5 0 0 1 507.1 596.2 13.8 13.8 0 0 1 514.8 599L524.3 605.7A86.7 86.7 0 0 0 537.6 611.9 54.3 54.3 0 0 0 556.2 614.8 36.2 36.2 0 0 0 581.4 607.1 27.1 27.1 0 0 0 590.5 584.8 23.3 23.3 0 0 0 582.9 571.4Z",
        "width": 1024
      },
      "search": ["xls"]
    },
    {
      "uid": "8c1c07a630c701e33764630b88f924f1",
      "css": "doc",
      "code": 59443,
      "src": "custom_icons",
      "selected": false,
      "svg": {
        "path": "M391.4 594.8A58.6 58.6 0 0 0 412.4 609 72.9 72.9 0 0 0 466.7 609 52.9 52.9 0 0 0 487.1 594.8 59.5 59.5 0 0 0 500 571.4 100 100 0 0 0 500 510.5 59.5 59.5 0 0 0 487.1 487.6 52.9 52.9 0 0 0 466.7 476.2 72.9 72.9 0 0 0 412.4 476.2 58.6 58.6 0 0 0 391.4 490.5 66.7 66.7 0 0 0 378.6 513.3 100 100 0 0 0 381 571.4 66.7 66.7 0 0 0 391.4 594.8ZM857.1 0H285.7A166.7 166.7 0 0 0 119 166.7V309.5H0V785.7H119V833.3A166.7 166.7 0 0 0 285.7 1000H857.1A166.7 166.7 0 0 0 1023.8 833.3V166.7A166.7 166.7 0 0 0 857.1 0ZM132.4 438.1H211.4A110 110 0 0 1 253.8 445.7 100.5 100.5 0 0 1 287.1 467.1 95.2 95.2 0 0 1 308.1 499.5 119 119 0 0 1 308.1 583.3 92.9 92.9 0 0 1 253.8 637.1 110 110 0 0 1 211.4 644.8H132.4ZM976.2 833.3A119 119 0 0 1 857.1 952.4H285.7A119 119 0 0 1 166.7 833.3V785.7H857.1V309.5H166.7V166.7A119 119 0 0 1 285.7 47.6H857.1A119 119 0 0 1 976.2 166.7ZM333.3 541.4A109.5 109.5 0 0 1 341 499.5 95.2 95.2 0 0 1 362.4 465.7 99.5 99.5 0 0 1 395.2 443.8 117.6 117.6 0 0 1 481 443.8 99.5 99.5 0 0 1 513.8 465.7 107.6 107.6 0 0 1 535.2 499.5 119 119 0 0 1 535.2 583.3 107.6 107.6 0 0 1 513.8 617.1 92.4 92.4 0 0 1 481 639 117.6 117.6 0 0 1 395.2 639 95.2 95.2 0 0 1 341 583.3 109.5 109.5 0 0 1 333.3 541.4ZM605.2 572.4A67.1 67.1 0 0 0 618.6 595.2 58.1 58.1 0 0 0 662.9 614.3H677.1L689 611.4 699 606.7A61.9 61.9 0 0 0 708.6 599.5L711.4 597.1H715.2A6.2 6.2 0 0 1 720.5 599.5L735.7 615.7A83.3 83.3 0 0 1 704.8 639.5 114.3 114.3 0 0 1 619 639.5 89.5 89.5 0 0 1 588.1 617.6 84.3 84.3 0 0 1 568.1 584.3 121.9 121.9 0 0 1 561 541.9 124.8 124.8 0 0 1 568.6 499 99 99 0 0 1 590.5 465.7 105.2 105.2 0 0 1 623.8 444.3 117.1 117.1 0 0 1 666.7 435.7 95.2 95.2 0 0 1 706.7 443.3 91.4 91.4 0 0 1 736.2 462.9L723.3 480.5S723.3 482.9 720.5 483.8L715.7 483.8A11.4 11.4 0 0 1 709 483.8 47.6 47.6 0 0 0 700 478.1L686.7 472.4A77.6 77.6 0 0 0 666.7 468.6 70 70 0 0 0 640 473.8 58.6 58.6 0 0 0 619 488.1 61.4 61.4 0 0 0 605.2 511 87.1 87.1 0 0 0 600.5 541.4 90 90 0 0 0 606.7 571.4ZM238.1 609A56.7 56.7 0 0 0 258.6 594.8 59.5 59.5 0 0 0 271.9 571.4 100 100 0 0 0 271.9 510.5 59.5 59.5 0 0 0 259 487.6 56.7 56.7 0 0 0 238.1 476.2 70.5 70.5 0 0 0 211 471H171V614.3H211.4A70.5 70.5 0 0 0 238.1 609Z",
        "width": 1024
      },
      "search": ["doc"]
    },
    {
      "uid": "7c6d7eb599c61bcd8b271001b14a43a1",
      "css": "arrow-right-circle",
      "code": 59400,
      "src": "custom_icons",
      "selected": false,
      "svg": {
        "path": "M500 950A450 450 0 1 0 500 50 450 450 0 0 0 500 950ZM500 1000C223.9 1000 0 776.1 0 500S223.9 0 500 0 1000 223.9 1000 500 776.1 1000 500 1000ZM514.3 577.8H277.8A77.8 77.8 0 0 1 277.8 422.2H514.3V313.8C514.3 287.8 535.8 266.7 562.3 266.7 575 266.7 587.3 271.6 596.3 280.4L785.9 466.7A46.5 46.5 0 0 1 785.9 533.4L596.2 719.5A48.6 48.6 0 0 1 528.3 719.5 46.7 46.7 0 0 1 514.3 686.2V577.8Z",
        "width": 1000
      },
      "search": ["arrow-right-circle"]
    },
    {
      "uid": "61b7a67231bdeb2f5d283a441bf42d3d",
      "css": "angle-right",
      "code": 59399,
      "src": "custom_icons",
      "selected": false,
      "svg": {
        "path": "M500 950A450 450 0 1 0 500 50 450 450 0 0 0 500 950ZM500 1000C223.9 1000 0 776.1 0 500S223.9 0 500 0 1000 223.9 1000 500 776.1 1000 500 1000ZM514.3 577.8H277.8A77.8 77.8 0 0 1 277.8 422.2H514.3V313.8C514.3 287.8 535.8 266.7 562.3 266.7 575 266.7 587.3 271.6 596.3 280.4L785.9 466.7A46.5 46.5 0 0 1 785.9 533.4L596.2 719.5A48.6 48.6 0 0 1 528.3 719.5 46.7 46.7 0 0 1 514.3 686.2V577.8Z",
        "width": 1000
      },
      "search": ["angle-right"]
    },
    {
      "uid": "a184ca99c21bdfd9724464b8062b5292",
      "css": "check",
      "code": 59447,
      "src": "custom_icons",
      "selected": false,
      "svg": {
        "path": "M913.5 64.7A98 98 0 0 1 1051.3 44.5C1094.9 77.2 1103.9 139.4 1071.4 183.3L496.2 960.1A98 98 0 0 1 347.7 971.1L47.3 669.8A99.7 99.7 0 0 1 46.9 529.5 98 98 0 0 1 186.2 529.2L406.3 749.8 913.5 64.7Z",
        "width": 1091
      },
      "search": ["check"]
    },
    {
      "uid": "7d23edda3f1ab24d736fe30f91b89ec0",
      "css": "icon-pen",
      "code": 59392,
      "src": "custom_icons",
      "selected": false,
      "svg": {
        "path": "M784.7 242.3L786.2 243.8C815.8 273.4 846.2 291.2 816.3 321L791.2 346 797.3 352.1 681.6 467.5 675.6 461.4 389.7 747 267.4 802.4C267.4 802.5 267.4 802.5 267.4 802.6 267.4 802.6 226.8 822.8 213.5 827 200.2 831.1 187.4 832.1 223.8 763.6L280.8 638.2 566.8 352.7 560.7 346.7 676.3 231.2 682.3 237.3 707.4 212.3C737.3 182.4 755 212.7 784.7 242.3",
        "width": 1000
      },
      "search": ["egna-berattelser"]
    },
    {
      "uid": "ba597dd821872a427281738675897fb7",
      "css": "faq",
      "code": 59393,
      "src": "custom_icons",
      "selected": false,
      "svg": {
        "path": "M519.7 352.4C516.6 401.9 468.6 440.1 412.4 437 355.1 433.9 314.3 388.5 314.3 328.7 314.3 207.9 418.5 142.9 554.5 142.9 713.9 142.9 821.2 217.2 821.2 344.1 821.2 531 617.8 532 496.2 627L432.8 618.7C477.8 453.5 627 441.2 627 333.8 627 287.4 593.3 253.3 537.1 253.3 512.5 253.3 491.1 259.5 473.7 269.8 505.4 284.3 522.8 316.3 519.7 352.4ZM441 857.1C498.3 857.1 541.2 818.9 541.2 760.1 541.2 701.3 498.3 663.1 441 663.1 383.8 663.1 340.9 701.3 340.9 760.1 340.9 819 382.8 857.1 441 857.1ZM413.4 350.3L418.5 334.9C416.5 340 414.4 345.1 413.4 350.3Z",
        "width": 1000
      },
      "search": ["faq"]
    },
    {
      "uid": "ec076a514adaf7137cace586f54fc84f",
      "css": "oversikt",
      "code": 59394,
      "src": "custom_icons",
      "selected": false,
      "svg": {
        "path": "M806.1 513.3C768.3 454.7 716.4 404.4 654.3 372.6 670.2 399.7 678.6 430.8 678.6 462.2 678.6 560.7 598.5 640.8 500 640.8 401.5 640.8 321.4 560.7 321.4 462.2 321.4 430.8 329.8 399.7 345.7 372.6 283.6 404.4 231.7 454.7 193.9 513.3 262 618.5 372.1 691.8 500 691.8 628 691.8 738 618.5 806.1 513.3ZM519.1 360.2C519.1 349.8 510.4 341.1 500 341.1 433.4 341.1 378.8 395.7 378.8 462.2 378.8 472.6 387.6 481.4 398 481.4 408.3 481.4 417.1 472.6 417.1 462.2 417.1 416.8 454.6 379.3 500 379.3 510.4 379.3 519.1 370.6 519.1 360.2ZM857.1 513.3C857.1 523.2 854 532.4 849.2 540.8 775.8 661.5 641.5 742.9 500 742.9 358.5 742.9 224.2 661.1 150.8 540.8 146 532.4 142.9 523.2 142.9 513.3 142.9 503.3 146 494.1 150.8 485.8 224.2 365.4 358.5 283.7 500 283.7 641.5 283.7 775.8 365.4 849.2 485.8 854 494.1 857.1 503.3 857.1 513.3Z",
        "width": 1000
      },
      "search": ["oversikt"]
    },
    {
      "uid": "44fef15f097ae592fd3f60fcc4a209da",
      "css": "fraga-varandra",
      "code": 59395,
      "src": "custom_icons",
      "selected": false,
      "svg": {
        "path": "M735.4 505.2C693.8 506.1 635.4 508.2 560.4 511.3 549.7 512.2 536.4 514.5 520.4 518.3 506.3 521.6 495.9 523.2 489.2 523.2 483.1 523.2 473.3 521 459.8 516.6A182.8 182.8 0 0 0 418 508.3C376.7 504.8 323.7 503.7 259.1 505.2 290.3 521.6 321.7 538 353.2 554.4 404.4 578.3 449.7 590.3 489.2 590.3 552 590.3 634.1 561.9 735.4 505.2M857.1 490.7C829.9 534.9 799.3 572.6 765.3 603.9 683.5 679.3 591.5 717.1 489.2 717.1 398.5 717.1 313.6 678.5 234.3 601.3 201.1 569.1 170.7 530.5 142.9 485.5 173.4 485.5 204.8 475.7 237 456.1 262.1 437.7 287.4 419.3 312.8 400.8 340.1 381.2 363.2 371.4 382.2 371.4A210.9 210.9 0 0 1 445.1 381.5C459.8 387.1 474.5 392.8 489.2 398.6 529.9 381.7 567 373.2 600.4 373.2 626.1 373.2 666.3 392.8 720.9 431.9 775.6 471.1 821.1 490.7 857.1 490.7",
        "width": 1000
      },
      "search": ["fraga-varandra"]
    },
    {
      "uid": "71c917e63db0580627f283b12cdd7ed7",
      "css": "angle-down",
      "code": 59396,
      "src": "custom_icons",
      "selected": false,
      "svg": {
        "path": "M665.6 951.5L95.3 396.8C44.5 350.1-0.2 291.6 0 214.6 0.3 90.7 89.7-0.4 202 0 261.5 0 318.9 51.3 359 96.1L665.6 405.8 972.7 83C1021.5 33.8 1070.2 1.2 1140.5 1.4 1250.7 1.6 1333.3 94.8 1333.3 214.1 1333.1 298.4 1282 356.7 1228.9 405.8L665.6 951.5Z",
        "width": 1333
      },
      "search": ["angle-down"]
    },
    {
      "uid": "3aabf352d46db640346012b2de689a2d",
      "css": "plus",
      "code": 59398,
      "src": "custom_icons",
      "selected": false,
      "svg": {
        "path": "M375 625L375 850C375 932.9 431 1000 500 1000 569 1000 625 932.9 625 850L625 625 850 625C932.9 625 1000 569 1000 500 1000 431 932.9 375 850 375L625 375 625 150C625 67.2 569 0 500 0 431 0 375 67.2 375 150L375 375 150 375C67.1 375 0 431 0 500 0 569 67.1 625 150 625L375 625Z",
        "width": 1000
      },
      "search": ["plus"]
    },
    {
      "uid": "6e3fce1123bc63727e344cf5584c4614",
      "css": "minus",
      "code": 59397,
      "src": "custom_icons",
      "selected": false,
      "svg": {
        "path": "M0 500C0 430.9 67.1 375 150 375H850C932.9 375 1000 430.9 1000 500S932.9 625 850 625H150C67.1 625 0 569.1 0 500Z",
        "width": 1000
      },
      "search": ["minus"]
    },
    {
      "uid": "5cb5c6fd0705807cd2af0fef5f78d082",
      "css": "angle-right",
      "code": 59399,
      "src": "custom_icons",
      "selected": false,
      "svg": {
        "path": "M1142.4 476.8L587.8 1047.1C541 1097.8 482.5 1142.5 405.5 1142.3 281.7 1142.1 190.5 1052.7 190.9 940.4 190.9 880.9 242.3 823.5 287 783.4L596.8 476.8 273.9 169.7C224.7 120.8 192.1 72.2 192.3 1.9 192.4-108.3 285.8-191 405-191 489.3-190.7 547.6-139.7 596.7-86.6L1142.4 476.8Z",
        "width": 1333
      },
      "search": ["angle-right"]
    },
    {
      "uid": "8ef8c2724c784230122b664d27ea8a91",
      "css": "arrow-right-circle",
      "code": 59400,
      "src": "custom_icons",
      "selected": false,
      "svg": {
        "path": "M0 601C47.2 828.7 250.8 1000 494.7 1000 773.7 1000 999.8 776.1 999.8 500 999.8 223.9 773.7 0 494.7 0 250.8 0 47.2 171.3 0 399L384.4 399 327.5 345.4C302.9 320.8 286.7 296.2 286.7 260.7 286.7 205.1 333.4 163.3 393.1 163.3 435.2 163.5 464.4 189.2 488.9 216.1L761.7 500.5 484.4 788.6C461 814.2 431.8 836.8 393.2 836.7 331.4 836.6 285.8 791.5 286 734.8 286 704.7 311.7 675.6 334 655.4L386.5 601 0 601Z",
        "width": 1000
      },
      "search": ["arrow-right-circle"]
    },
    {
      "uid": "7db23713cca26b2c216cffbbe310b8b4",
      "css": "arrow-rigt-ext-circle",
      "code": 59401,
      "src": "custom_icons",
      "selected": false,
      "svg": {
        "path": "M214.3 887.7C399.4 1009.3 651.9 987.5 816.2 823.1 1004.1 635.3 1005.6 332.2 819.7 146.2 633.7-39.7 330.6-38.2 142.8 149.7-21.6 314-43.4 566.5 78.2 751.6L337.1 492.7 262.7 495C229.6 495 202.1 489.3 178.2 465.4 140.8 427.8 144.1 368.3 184.2 328.1 212.7 299.9 249.7 297.5 284.3 299.1L659.6 307 667 687.8C668.4 720.8 663.9 755.7 637.9 781.6 596.2 823.2 535.1 823.4 497 785.1 476.8 764.8 474.5 728 476 699.4L474.6 627.4 214.3 887.7Z",
        "width": 1000
      },
      "search": ["arrow-rigt-ext-circle"]
    },
    {
      "uid": "f3ba5db19ddcf353490779dd0425caf6",
      "css": "office",
      "code": 59404,
      "src": "custom_icons",
      "selected": false,
      "svg": {
        "path": "M665.9 358C665.9 376.8 650.3 391.9 631.3 391.9H561.9C542.8 391.9 527.1 376.8 527.1 358V290C527.1 271.3 542.8 256 561.9 256H631.3C650.3 256 665.9 271.3 665.9 290V358ZM665.9 545.2C665.9 563.9 650.3 579.1 631.3 579.1H561.9C542.8 579.1 527.1 563.9 527.1 545.2V477C527.1 458.3 542.8 443 561.9 443H631.3C650.3 443 665.9 458.3 665.9 477V545.2L665.9 545.2ZM665.9 732.2C665.9 750.9 650.3 766.1 631.3 766.1H561.9C542.8 766.1 527.1 750.9 527.1 732.1V664.1C527.1 645.3 542.8 630.1 561.9 630.1H631.3C650.3 630.1 665.9 645.3 665.9 664.1V732.1 732.2ZM717.9 17.9L301.7 256C282.6 256 267 271.3 267 290V953.2C267 972.1 282.6 987.2 301.7 987.2H717.9C737.1 987.2 752.6 972 752.6 953.2V52C752.6 33.2 737.1 17.9 717.9 17.9V17.9Z",
        "width": 1056
      },
      "search": ["office-small"]
    },
    {
      "uid": "5792639bcce4f27e295a7533d6116a8f",
      "css": "office-alt",
      "code": 59410,
      "src": "custom_icons",
      "selected": false,
      "svg": {
        "path": "M400.4 330.2C400.4 348.4 384.7 363.1 365.7 363.1H296C276.8 363.1 261 348.4 261 330.2V264.2C261 245.9 276.8 231.2 296 231.2H365.7C384.7 231.2 400.4 245.9 400.4 264.2 400.4 264.2 400.4 330.2 400.4 330.2ZM400.4 511.8C400.4 530.1 384.7 544.7 365.7 544.7H296C276.8 544.7 261 530.1 261 511.9V445.7C261 427.5 276.8 412.7 296 412.7H365.7C384.7 412.7 400.4 427.5 400.4 445.7V511.9 511.8ZM400.4 693.3C400.4 711.6 384.7 726.3 365.7 726.3H296C276.8 726.3 261 711.6 261 693.3V627.3C261 609.1 276.8 594.3 296 594.3H365.7C384.7 594.3 400.4 609.1 400.4 627.3V693.4 693.3ZM452.6 0L34.7 231.2C15.6 231.2 0 245.9 0 264.2V907.9C0 926.3 15.6 941 34.7 941H452.6C471.8 941 487.4 926.2 487.4 907.9V33.1C487.4 14.8 471.8 0 452.6 0ZM807.2 508.2C807.2 526.7 792.8 541.7 775 541.7H710.6C692.4 541.4 678 526.4 678.3 508.3 678.3 508.3 678.3 508.2 678.3 508.2V441.4C678 423.3 692.4 408.3 710.5 408 710.5 408 710.6 408 710.6 408H775C792.8 408 807.2 423 807.2 441.4V508.1 508.2ZM807.2 691.9C807.2 710.4 792.8 725.5 775 725.5H710.6C692.4 725.2 678 710.2 678.3 692.1 678.3 692 678.3 692 678.3 691.9V625.2C678.3 606.7 692.7 591.8 710.6 591.8H775C792.8 591.8 807.2 606.7 807.2 625.2V691.9ZM629.9 508.2C629.9 526.7 615.5 541.7 597.7 541.7H533.2C515.4 541.7 500.9 526.7 500.9 508.2V441.4C500.9 423 515.4 408 533.2 408H597.6C615.5 408 629.9 423 629.9 441.4V508.1 508.2ZM629.9 691.9C629.9 710.4 615.5 725.5 597.7 725.5H533.2C515 725.1 500.6 710.1 500.9 691.9V625.2C500.9 606.7 515.4 591.8 533.2 591.8H597.6C615.7 592.1 630.2 606.9 629.9 625.1 629.9 625.1 629.9 625.1 629.9 625.2 629.9 625.2 629.9 691.9 629.9 691.9ZM871.7 307.7H517C472.5 307.7 436.4 345.2 436.4 391.3V859C436.4 905.2 472.5 942.7 517 942.7H871.7C916.3 942.7 952.3 905.2 952.3 859V391.4C952.3 345.3 916.3 307.8 871.7 307.8L871.7 307.7Z",
        "width": 1000
      },
      "search": ["office"]
    },
    {
      "uid": "df8ca97ca2d5e19bbe9d2caaeda3547b",
      "css": "mail-filled",
      "code": 59411,
      "src": "custom_icons",
      "selected": false,
      "svg": {
        "path": "M500 1000C223.9 1000 0 776.1 0 500S223.9 0 500 0 1000 223.9 1000 500 776.1 1000 500 1000ZM737.5 436.8C729.8 445.3 721 452.8 711.7 459.3A4943.4 4943.4 0 0 0 583.2 548.3C561.5 564.3 534.6 583.9 506.5 583.9H506C477.8 583.9 451 564.3 429.3 548.3 387.3 517.6 343.9 488.4 301.1 459.3A144.3 144.3 0 0 1 275 436.8V641.8C275 664.5 293.6 683.1 316.3 683.1H696.2A41.4 41.4 0 0 0 737.5 641.8V436.8ZM737.5 361A41.6 41.6 0 0 0 696.2 319.7H316.3C288.7 319.7 275 341.3 275 366.7 275 390.1 301.1 419.3 319.4 431.7 359.4 459.6 399.9 487.4 439.9 515.6 456.7 527.2 485.1 550.9 506 550.9H506.5C527.4 550.9 555.8 527.2 572.6 515.6 612.6 487.4 653.1 459.6 693.4 431.7 716.1 415.9 737.5 389.9 737.5 361Z",
        "width": 1000
      },
      "search": ["mail"]
    },
    {
      "uid": "77f41657e05a584e6384cc8d38f10f00",
      "css": "umopodtext",
      "code": 59413,
      "src": "custom_icons",
      "selected": false,
      "svg": {
        "path": "M117.2 892.1H142.7C168.3 892.1 178 881.5 178 854.1 178 827.1 168.3 817 142.7 817H117.2V892.1ZM54.6 973.3H69.8C74 973.3 75.5 971.7 75.5 964.4V825.5C75.5 818.6 74 817 69.8 817H54.6V794.2H142.1C197.1 794.2 222.6 813.1 222.6 853.8 222.6 896.4 198.6 914.3 141.8 914.3H117.2V964.4C117.2 971.7 118.7 973.3 123 973.3H139.7V996H54.6V973.3ZM401.4 902.4V888.4C401.4 838.6 381 816.4 343.6 816.4 305.6 816.4 285 838.6 285 888.4V902.4C285 952.3 305 973.9 343 973.9S401.4 952.3 401.4 902.4M241.2 895.4C241.2 832.2 283.4 790.3 344.2 790.3 407.1 790.3 444.5 831.9 444.5 895.4 444.5 958.7 402.9 1000 342.4 1000 278.9 1000 241.2 958.7 241.2 895.4M554.5 973.3C600.1 973.3 612.9 951.4 612.9 902.7V888.4C612.9 838.3 601.1 817 556.1 817H526V973.3H554.5ZM463.4 973.3H478.6C482.8 973.3 484.3 971.7 484.3 964.4V825.5C484.3 818.6 482.8 817 478.6 817H463.4V794.2H553C625.1 794.2 659.1 830.4 659.1 895.7 659.1 959 623.5 996 550.9 996H463.4V973.3ZM770.3 973.3C815.9 973.3 828.7 951.4 828.7 902.7V888.4C828.7 838.3 816.8 817 771.9 817H741.8V973.3H770.3ZM679.2 973.3H694.4C698.6 973.3 700.1 971.7 700.1 964.4V825.5C700.1 818.6 698.6 817 694.4 817H679.2V794.2H768.8C840.9 794.2 874.9 830.4 874.9 895.7 874.9 959 839.3 996 766.7 996H679.2V973.3ZM894.9 973.3H910.1C914.4 973.3 915.9 971.7 915.9 964.7V825.5C915.9 818.5 914.4 817 910.1 817H894.9V794.2H1059.7V844.7H1033.2L1029.6 826.4C1027.8 817.9 1022.9 817 1011.1 817H957.6V882.7H991.6C998.3 882.7 1000.4 880.5 1000.4 873.2V862H1023.2V926.7H1000.4V915.5C1000.4 908.2 998.3 905.2 991.6 905.2H957.6V973.3H1015C1027.2 973.3 1031.7 973 1033.5 963.8L1037.2 945.6H1063.3V996H894.9L894.9 973.3ZM1151.5 794.2L1253 930.1V825.5C1253 818.6 1251.5 817 1247.2 817H1230.8V794.2H1300.4V817H1283.7C1279.4 817 1277.9 818.5 1277.9 825.5V996.4H1251.5L1134.4 840.4V964.7C1134.4 971.7 1136 973.3 1140.2 973.3H1156.9V996H1087V973.3H1103.8C1108 973.3 1109.5 971.7 1109.5 964.7V825.5C1109.5 818.5 1108 817 1103.8 817H1087V794.2H1151.5ZM743.6 64.8C739.3 66.1 735.2 67.5 730.9 68.8 718.6 72.7 718.2 90.1 715.9 107 700.4 217.5 677 322.9 645.8 421.8 584.3 335.2 531 255.5 485.9 183.7 479.1 172.7 473.9 160.5 461.9 165.5 457.8 167.2 453.8 168.8 449.9 170.3 443.8 172.9 439.2 180.7 439.5 187.9 439 341.9 435.7 493.6 429.4 642.6 428.9 656.6 444.2 668 461.5 667.9 469.1 667.8 476.9 667.7 484.5 667.6 519.4 667.5 543.4 642.8 542.2 612.6 540.5 558.2 538.3 503.8 535.9 448.9A6319.7 6319.7 0 0 0 649.7 609.9C657.1 620.1 662.4 627.7 674.8 627.4L675 627.5C687.4 627.1 690.3 619.2 694.4 608.5 717.2 548.6 736.9 486.2 753.5 421.3 769.1 481.8 785.2 542.5 801.7 603.4 810.6 637.3 843 664.7 877.8 664.6 888 664.5 898.1 664.5 908.2 664.3 925.6 664.2 936.6 649.6 930.9 631.9A27681.8 27681.8 0 0 1 758.8 77.3C756.6 68.5 749.7 62.9 743.6 64.8M344.8 220.8C338.4 223.4 332.1 226.2 325.7 229 301.9 239.7 280.2 268.9 277.2 293.7L254 504.2C250.7 535.3 243.4 559.3 231.7 575.3 220.1 591.3 200.1 600.3 172.3 602.2 145.1 604.3 128.1 598.6 121.8 585.6 115.5 572.6 116 552.5 122.8 524.8 138.1 462.3 153.5 399.8 168.9 337.3 174.1 314.8 159.2 306.1 135.6 318.2 128.4 321.8 121.3 325.4 114 329 102.3 335 89.5 348 85.5 357.9 61.5 419.5 37.3 481.3 13.3 543-5.5 590.5-4.8 623.9 18.4 646.1 41.3 668.3 88.6 680.4 157.2 679.7 225.8 679.1 277.9 664.6 310.8 633.1 343.9 601.8 359.5 552.4 360.8 487.8 362.5 403.9 364.3 319.7 366 235.7 366.3 222.2 356.7 215.5 344.7 220.8M1209 416.6C1215.4 442.4 1218.7 464.6 1218.5 483.5 1218.3 502.4 1214.7 517.1 1207.5 527.5 1200.4 537.9 1189.6 543.4 1175.4 544 1161.8 544.5 1147.5 540.2 1133.1 530.9 1118.7 521.6 1104.7 508.2 1091 490.9 1077.4 473.4 1064.6 452.6 1052.6 428.4 1040.6 404.4 1029.6 377.6 1019.6 348 1009.7 318.6 1002.4 291.5 997.6 267 992.9 242.3 990.7 220.9 991.1 202.5 991.5 184.2 994.5 169.4 1000 158.1 1005.7 146.8 1013.9 140.1 1025 138.2 1036.6 136.1 1048.7 139.4 1061.7 147.9 1074.5 156.4 1087.7 169.2 1101.3 185.9 1114.7 202.9 1128.2 223.9 1141.6 248.5 1155.1 273.3 1168.2 301 1180.6 331.8 1193.1 362.6 1202.5 391 1209 416.6M1205.6 165.8C1177.2 123.5 1149.4 89.2 1122.4 62.9 1095.2 36.8 1069.4 18.9 1044.5 9.4 1019.6-0.1 996.7-2.4 974.8 2.6 953 7.6 935 19 920 36.6 905.1 54.3 894.4 78.3 887.9 108.2 881.3 138.2 879.4 173.8 882.3 215.1 885 256.4 893.7 303.7 909.5 357.4 925.2 411.3 943.6 457.5 966 496.6 988.3 535.4 1013.1 567.6 1040.7 593.4 1068.3 619.1 1098 638.4 1129.3 651.3 1160.5 664.2 1191.7 670.7 1222.3 670.3 1252.8 669.9 1279.1 662.8 1300.2 648.6 1321.6 634.3 1336 612.8 1343.3 584 1350.6 555.2 1350 518.7 1341.6 474.6 1333.2 430.6 1315.3 378.6 1288.6 319 1261.9 259.5 1234.1 208.1 1205.6 165.8",
        "width": 1348
      },
      "search": ["umopodtext"]
    },
    {
      "uid": "a506d15aed1dae58e4d0217670820fe2",
      "css": "check-active",
      "code": 59414,
      "src": "custom_icons",
      "selected": false,
      "svg": {
        "path": "M1250.8 218.4C1273.3 190.3 1283.5 155.4 1279.5 119.6 1271.7 51.6 1214.2 0.2 1145.7 0 1104.6 0 1066.3 18.2 1040.6 50.6L534.2 683.7 486.9 646 218.8 431.5C194.9 412.6 165.3 402.1 134.7 402.1 93.5 402.1 55.3 420.4 29.5 452.6 6.9 480.8-3.1 515.6 0.9 551.4 4.9 587.4 22.5 619.3 50.7 641.7L462 970.6C492.7 994.9 532.5 1004.8 571 997.6L576 996.9C612.2 993.4 645.6 975.4 668 947.5L1250.8 218.4 1250.8 218.4Z",
        "width": 1280
      },
      "search": ["check-active"]
    },
    {
      "uid": "d55342262fbc5f80a11587897ef728be",
      "css": "check-in-active",
      "code": 59415,
      "src": "custom_icons",
      "selected": false,
      "svg": {
        "path": "M1105.1 273C1123.3 250.3 1131.4 222.2 1128.2 193.4 1121.9 138.6 1075.6 97.2 1020.5 97 987.3 97 956.5 111.7 935.8 137.8L527.9 647.7 489.8 617.3 273.8 444.6C254.6 429.4 230.7 420.9 206.1 420.9 172.9 420.9 142.1 435.6 121.4 461.6 103.2 484.3 95.1 512.4 98.3 541.2 101.6 570.2 115.7 595.8 138.4 613.9L469.7 878.8C494.5 898.4 526.5 906.4 557.6 900.6L561.5 900C590.7 897.2 617.6 882.7 635.6 860.3L1105.1 273 1105.1 273ZM859.7 76.8C931.2-11.8 1061-25.8 1149.7 45.8 1191.8 79.7 1218.9 128.8 1225.1 182.6 1231.3 236.9 1215.4 291.3 1181.1 333.9L711.6 921.3C677.5 963.9 627.5 991.1 573 997 514.7 1007.2 455 991.9 408.7 955.1L77.4 690.2C34.7 656.2 7.3 606.4 1.3 552.2-4.8 497.6 10.8 443.7 45.1 400.8 84.1 351.8 143.3 323.4 206 323.4 252.4 323.4 298 339.5 334.5 368.5L512.5 510.8 859.5 76.8H859.7Z",
        "width": 1226
      },
      "search": ["check-in-active"]
    },
    {
      "uid": "204438992ca6f50293988cd9236433f1",
      "css": "instagram",
      "code": 59412,
      "src": "custom_icons",
      "selected": false,
      "svg": {
        "path": "M500.3 596.4C556 596.4 600.9 552.8 600.9 499H600.9C600.9 445.3 556 401.7 500.3 401.7 445 401.7 400 445.3 400 499 400 552.8 444.9 596.4 500.3 596.4ZM500 0C223.9 0 0 223.9 0 500S223.9 1000 500 1000C776.1 1000 1000 776.1 1000 500S776.1 0 500 0ZM750 685.9C749.8 721.2 721.2 749.8 685.9 750H314.2C278.8 749.8 250.2 721.2 250 685.9V314.2C250 278.9 279 250 314.2 250H685.9C721 250 750 279 750 314.2V685.9ZM655.9 504.3C655.9 587.6 586.3 655 500.3 655 414.7 655 345.1 587.6 345.1 504.3 345.1 489.7 347.4 475 351.6 461.7H305.7V672.6C305.7 683.6 314.5 692.5 325.5 692.5H673.5C684.4 692.5 693.3 683.7 693.4 672.8 693.4 672.8 693.4 672.7 693.4 672.6V672.5 461.7H649.4C653.6 475 655.9 489.6 655.9 504.3ZM670.9 305.7H614.3C601.8 305.7 591.8 315.7 591.8 328.2V381.9C591.8 394.2 601.9 404.3 614.3 404.3H670.9C683.4 404.3 693.4 394.3 693.4 381.8V328.1C693.4 315.7 683.4 305.7 670.9 305.7Z",
        "width": 1000
      },
      "search": ["instagram"]
    },
    {
      "uid": "7050f98bb29e6daa516e2c6be39b7f10",
      "css": "search",
      "code": 59444,
      "src": "custom_icons",
      "selected": false,
      "svg": {
        "path": "M435.7 800C636.9 800 800 636.9 800 435.7 800 234.5 636.9 71.4 435.7 71.4 234.5 71.4 71.4 234.5 71.4 435.7 71.4 636.9 234.5 800 435.7 800ZM760.6 715.2L983.4 938C996 950.5 996 970.9 983.4 983.4 970.9 996 950.5 996 938 983.4L715.2 760.6C640.1 825.2 542.5 864.3 435.7 864.3 199 864.3 7.1 672.4 7.1 435.7 7.1 199 199 7.1 435.7 7.1 672.4 7.1 864.3 199 864.3 435.7 864.3 542.5 825.2 640.1 760.6 715.2Z",
        "width": 1000
      },
      "search": ["icon-search"]
    }
  ]
}
